{
  "pluginId": "hello-world",
  "extensions": [
    {
      "area": "Page",
      "componentName": "HelloWorld",
      "route": "hello"
    }
  ],
  "settings": {
    "greetingLabel": "Heya!",
    "fontColor": "yellow"
  }
}
